%YAML 1.1
%TAG !u! tag:unity3d.com,2011:
--- !u!114 &11400000
MonoBehaviour:
  m_ObjectHideFlags: 0
  m_CorrespondingSourceObject: {fileID: 0}
  m_PrefabInternal: {fileID: 0}
  m_GameObject: {fileID: 0}
  m_Enabled: 1
  m_EditorHideFlags: 0
  m_Script: {fileID: 11500000, guid: e3f2290a3d004ec4fb8e6f42240a8631, type: 3}
  m_Name: Credit Scheme
  m_EditorClassIdentifier: 
  name: Credit
  description: Write your description here.
  graphics: {fileID: 0}
  value: 1
